<?xml version="1.0" encoding="UTF-8"?>
<svg width="10px" height="8px" viewBox="0 0 10 8" version="1.1" xmlns="http://www.w3.org/2000/svg" xmlns:xlink="http://www.w3.org/1999/xlink">
    <!-- Generator: Sketch 47.1 (45422) - http://www.bohemiancoding.com/sketch -->
    <title>check-mark</title>
    <desc>Created with Sketch.</desc>
    <defs></defs>
    <g id="Page-1" stroke="none" stroke-width="1" fill="none" fill-rule="evenodd">
        <g id="Editor-with-errors" transform="translate(-142.000000, -4840.000000)" fill-rule="nonzero" fill="#7BC75C">
            <g id="done-ic-white" transform="translate(142.000000, 4840.000000)">
                <path d="M8.60447356,0.112981705 L3.74299711,4.97475254 C3.59235483,5.12539483 3.34553704,5.12539483 3.19489476,4.97475254 L1.39545287,3.09157702 C1.24481059,2.94093476 0.997992794,2.94093476 0.847350517,3.09157702 L0.112981706,3.82633839 C-0.0376605685,3.97698067 -0.0376605685,4.22379847 0.112981706,4.37444074 L3.19489476,7.53969489 C3.34553704,7.69033717 3.59235483,7.69033717 3.74299711,7.53969489 L9.88694467,1.39545287 C10.0376851,1.24471246 10.0376851,0.997992794 9.88694467,0.847252383 L9.15257589,0.112981705 C9.00203172,-0.0376605685 8.75511583,-0.0376605685 8.60447356,0.112981705 L8.60447356,0.112981705 Z" id="check-mark"></path>
            </g>
        </g>
    </g>
</svg>